%time,field.x,field.y,field.z
1685882319433487593,-0.2683485448360443,0.10653448104858398,-0.7807778716087341
1685882319435199752,-0.2657618224620819,0.10735352337360382,-0.7527920603752136
1685882319435213231,-0.26840871572494507,0.10683124512434006,-0.7004536986351013
1685882319451177690,-0.26584064960479736,0.1086515560746193,-0.7676751613616943
1685882319486688977,-0.27507466077804565,0.10626500099897385,-0.9515577554702759
1685882319527190074,-0.27175983786582947,0.10526936501264572,-0.8298547267913818
1685882319570024848,-0.2606772482395172,0.10900530964136124,-0.668341338634491
1685882319616608492,-0.2660406529903412,0.10849928855895996,-0.701263964176178
1685882319768526892,-0.2598549723625183,0.10608996450901031,-0.6406334638595581
1685882319768547076,-0.25498127937316895,0.10623825341463089,-0.4399891495704651
1685882319768574314,-0.2703096866607666,0.10773608088493347,-0.8530941605567932
1685882319782360564,-0.2656310200691223,0.10725437104701996,-0.7669137120246887
1685882319829321630,-0.26785245537757874,0.10520495474338531,-0.7874785661697388
1685882319901580535,-0.26778969168663025,0.10640095174312592,-0.7032616138458252
1685882319914835292,-0.2648845314979553,0.10482881218194962,-0.6202945709228516
1685882319963421215,-0.26520583033561707,0.10481831431388855,-0.6935019493103027
1685882320165306022,-0.26084765791893005,0.10851942747831345,-0.7610652446746826
1685882320188139371,-0.2638782560825348,0.10698463022708893,-0.8130791187286377
1685882320188154177,-0.26855525374412537,0.1064765527844429,-0.7137293815612793
1685882320188172825,-0.2574601173400879,0.1036761924624443,-0.4741367995738983
1685882320188193149,-0.2647075057029724,0.1058831587433815,-0.6093729138374329
1685882320210011005,-0.2595548629760742,0.10740884393453598,-0.6004666686058044
1685882320246790401,-0.25982731580734253,0.10998566448688507,-0.7516278028488159
1685882320436850869,-0.21664099395275116,0.11102282255887985,-0.11741526424884796
1685882320454801056,-0.20507624745368958,0.10809742659330368,-0.0016980916261672974
1685882320454811462,-0.19923406839370728,0.10201078653335571,-0.5120888352394104
1685882320455106471,-0.17576728761196136,0.09927774220705032,-0.6453617811203003
1685882320528566297,-0.16191862523555756,0.1034935861825943,-0.4788123369216919
1685882320559748053,-0.11332209408283234,0.09571696817874908,-0.0889170840382576
1685882320574600569,-0.08368051052093506,0.10353641957044601,-0.29399922490119934
1685882320604761525,-0.04757778346538544,0.10797286033630371,-0.6372097730636597
1685882320779836221,0.00048536062240600586,0.09879036992788315,-0.501055121421814
1685882320809212300,0.03632292151451111,0.10470453649759293,-0.43177330493927
1685882320809242123,0.07793429493904114,0.10116501152515411,-0.5819804668426514
1685882320809272643,0.13057708740234375,0.10032914578914642,0.1039675697684288
1685882320879668182,0.1107499897480011,0.09859462827444077,-1.1275837421417236
1685882320881933414,0.14333981275558472,0.09901981055736542,-1.56313157081604
1685882320920596708,0.19280248880386353,0.10851862281560898,-1.7136147022247314
1685882321195880718,0.2463759183883667,0.10457995533943176,-1.5861345529556274
1685882321228163452,0.27994504570961,0.11119543015956879,-2.013014554977417
1685882321228176862,0.33207887411117554,0.11161527782678604,-1.943406105041504
1685882321228347135,0.3878968358039856,0.11580359935760498,-1.7712773084640503
1685882321228380449,0.42253631353378296,0.12595631182193756,-2.117131233215332
1685882321228407198,0.4944111108779907,0.12894457578659058,-1.9554765224456787
1685882321244709549,0.508755624294281,0.1402970552444458,-2.219353675842285
1685882321278194811,0.574568510055542,0.1426207423210144,-1.7654967308044434
1685882321317532562,0.6225578784942627,0.14167657494544983,-2.1618151664733887
1685882321362568733,0.6876717805862427,0.15003104507923126,-2.289886474609375
1685882321704295963,0.7478213310241699,0.15336443483829498,-2.176137685775757
1685882321704323131,0.7736066579818726,0.15608064830303192,-2.1434569358825684
1685882321804612135,0.837116003036499,0.15648098289966583,-1.8014934062957764
1685882321804755798,0.8949454426765442,0.18298473954200745,-1.6152886152267456
1685882321804777030,0.9583631157875061,0.17757980525493622,-1.2778034210205078
1685882321804788903,1.0131289958953857,0.18555468320846558,-1.3648500442504883
1685882321804803011,1.042542576789856,0.18194159865379333,-1.2142951488494873
1685882321804824103,1.1261779069900513,0.17909932136535645,-0.8608140349388123
1685882321804856998,1.187294363975525,0.1917424499988556,-1.2511494159698486
1685882321851634382,1.252295732498169,0.2025894820690155,-1.462488055229187
1685882321851699264,1.323508858680725,0.21100494265556335,-1.6754862070083618
1685882321990407606,1.3576723337173462,0.205746591091156,-1.4309077262878418
1685882321990427231,1.4156049489974976,0.22844421863555908,-1.8030623197555542
1685882321990465784,1.4867810010910034,0.24149972200393677,-2.0102500915527344
1685882322030210290,1.5644373893737793,0.24956049025058746,-2.0200576782226562
1685882322068113013,1.6359156370162964,0.2604997158050537,-2.53439998626709
1685882322113047634,1.67671537399292,0.27175307273864746,-2.8562264442443848
1685882322164738212,1.7519590854644775,0.28357550501823425,-3.04807186126709
1685882322336178647,1.8301200866699219,0.2787303328514099,-2.9793500900268555
1685882322345107505,1.904685139656067,0.29891321063041687,-2.981067657470703
1685882322345125105,1.9852218627929688,0.3020573556423187,-2.7504048347473145
1685882322351626001,2.0214321613311768,0.32314008474349976,-2.7213807106018066
1685882322386014799,2.1066040992736816,0.3346545994281769,-2.671607494354248
1685882322431755878,2.1797144412994385,0.3682541251182556,-2.9447340965270996
1685882322476799731,2.2534778118133545,0.37505173683166504,-2.7924575805664062
1685882322521047953,2.3369524478912354,0.395966112613678,-2.8166751861572266
1685882322582261179,2.378446578979492,0.3864805996417999,-2.58884334564209
1685882322731985097,2.4560282230377197,0.39789697527885437,-2.5093421936035156
1685882322731998367,2.564046859741211,0.3821071982383728,-1.8631806373596191
1685882322732005909,2.624337673187256,0.3957967758178711,-2.7594828605651855
1685882322757368141,2.711043357849121,0.41826510429382324,-2.874279499053955
1685882322797229492,2.7585816383361816,0.43122398853302,-2.9607417583465576
1685882322850410204,2.8281335830688477,0.4543454349040985,-3.134766101837158
1685882322883819059,2.919382095336914,0.4533964991569519,-3.001220703125
1685882322980894735,2.9996399879455566,0.477939635515213,-3.0745346546173096
1685882323244484171,3.0900018215179443,0.4863571226596832,-2.849186658859253
1685882323244538578,3.11430287361145,0.4974074959754944,-3.3232457637786865
1685882323244560648,3.211454153060913,0.5009726881980896,-3.1878843307495117
1685882323244584952,3.2861146926879883,0.5078321695327759,-3.100550413131714
1685882323244596336,3.379124879837036,0.5291842222213745,-3.083894729614258
1685882323249821931,3.463557243347168,0.5663532018661499,-3.027533769607544
1685882323249845747,3.506171464920044,0.5613870024681091,-2.8384127616882324
1685882323289164082,3.599256753921509,0.5903369784355164,-2.698673725128174
1685882323335078856,3.6850528717041016,0.5975913405418396,-2.7810616493225098
1685882323687120526,3.7738304138183594,0.6003846526145935,-2.752074956893921
1685882323687211250,3.824519395828247,0.5866390466690063,-2.5808732509613037
1685882323687221167,3.925771713256836,0.5922334790229797,-2.828787326812744
1685882323687229269,4.0125412940979,0.5889931917190552,-3.6126813888549805
1685882323693565270,4.089728832244873,0.5959618091583252,-4.439942836761475
1685882323693600051,4.177656650543213,0.6137754917144775,-6.2186079025268555
1685882323693618279,4.204558372497559,0.6913042664527893,-8.719555854797363
1685882323705833030,4.286657333374023,0.7057068347930908,-10.560131072998047
1685882323748235975,4.352147102355957,0.7092512249946594,-11.930705070495605
1685882323791782361,4.408592224121094,0.7777023911476135,-14.275588035583496
1685882323844213187,4.476742744445801,0.7512416839599609,-14.736363410949707
1685882323879596176,4.495761394500732,0.8079689145088196,-16.18166732788086
1685882323969343755,4.544773101806641,0.8401029109954834,-16.2486515045166
1685882323985097224,4.583612442016602,0.8844456076622009,-15.739971160888672
1685882324014989152,4.6305694580078125,0.9127552509307861,-14.591917037963867
1685882324057503214,4.649839878082275,1.0344369411468506,-13.82996654510498
1685882324102418490,4.677509307861328,0.9466281533241272,-9.790642738342285
1685882324151103169,4.705085754394531,0.9895654916763306,-5.474925994873047
1685882324258787456,4.712859153747559,1.1299750804901123,-2.470759868621826
1685882324263677044,4.721437931060791,1.2743078470230103,1.3600205183029175
1685882324284192989,4.730810165405273,1.3753776550292969,7.207755088806152
1685882324332614506,4.79366397857666,1.10517418384552,17.346466064453125
1685882324376677578,4.7646355628967285,1.334906816482544,20.76276206970215
1685882324423679572,4.737294673919678,1.4892133474349976,23.41495704650879
1685882324471335978,4.743767738342285,1.4761556386947632,27.85038948059082
1685882324676959248,4.731870174407959,1.5802046060562134,29.02405548095703
1685882324676964975,4.73942232131958,1.5868347883224487,30.290315628051758
1685882324677100817,4.752623081207275,1.6142182350158691,30.823762893676758
1685882324683301884,4.709909439086914,1.8060413599014282,26.06879997253418
1685882324707440427,4.696619987487793,1.8893473148345947,23.744144439697266
1685882324755159480,4.666838645935059,1.989872932434082,20.825510025024414
1685882324801490090,4.652181625366211,2.0826854705810547,18.127639770507812
1685882324925852124,4.652900695800781,2.0732197761535645,16.629528045654297
1685882325028461674,4.617997169494629,2.1556127071380615,13.523151397705078
1685882325028485141,4.60687780380249,2.206104040145874,11.70494270324707
1685882325028543807,4.542674541473389,2.3953444957733154,7.312403202056885
1685882325545035847,4.525578022003174,2.4261388778686523,5.597384929656982
1685882325545045276,4.484045028686523,2.5184240341186523,2.8292675018310547
1685882325545253263,4.468989849090576,2.5834412574768066,1.8031504154205322
1685882325545266184,4.43815803527832,2.6727468967437744,0.6665390729904175
1685882325545284762,4.397511005401611,2.7844529151916504,-1.3262667655944824
1685882325545320590,4.362010955810547,2.8638429641723633,-1.679672122001648
1685882325589811440,4.3088860511779785,2.97182559967041,-1.7816972732543945
1685882325589956361,4.2701497077941895,3.0687179565429688,-2.0172972679138184
1685882325589981085,4.228886604309082,3.186757802963257,-2.0524728298187256
1685882325589990513,4.2061896324157715,3.216045379638672,-1.8811593055725098
1685882325590032767,4.17686653137207,3.3328568935394287,-2.0954878330230713
1685882325590046596,4.17910099029541,3.402968406677246,-1.7375056743621826
1685882325608112649,4.196873664855957,3.4336252212524414,-2.949110507965088
1685882325641307860,4.2190022468566895,3.43558931350708,-5.090960502624512
1685882325688223180,4.130585670471191,3.651700496673584,-10.781055450439453
1685882325728076639,4.129029750823975,3.6986401081085205,-13.962753295898438
1685882325771603749,4.127861022949219,3.8199121952056885,-17.815258026123047
1685882325829223852,4.149507999420166,3.8530921936035156,-20.392526626586914
1685882325858187658,4.1101579666137695,3.9405620098114014,-24.454456329345703
1685882325901141093,4.0639142990112305,4.056172847747803,-28.04964256286621
1685882325943911123,4.082652568817139,4.1372904777526855,-31.017587661743164
1685882325992259517,4.106740951538086,4.183109760284424,-33.25132751464844
1685882326045921644,4.099952697753906,4.2484540939331055,-36.675376892089844
1685882326076492499,4.04379415512085,4.394028186798096,-40.66209411621094
1685882326114714535,4.06817626953125,4.419949054718018,-42.896888732910156
1685882326158109157,4.074684143066406,4.517580509185791,-46.95073699951172
1685882326202454109,4.142555236816406,4.543352127075195,-48.9200553894043
1685882326244571542,4.150460720062256,4.615437984466553,-52.5591926574707
1685882326286362538,4.090219974517822,4.724593639373779,-55.7257080078125
1685882326331909458,4.116481304168701,4.750438690185547,-57.5131721496582
1685882326374385178,4.156350135803223,4.775179386138916,-59.597469329833984
1685882326420015279,4.088747024536133,4.906776428222656,-64.0954360961914
1685882326491640304,4.136146545410156,4.928239345550537,-66.03556823730469
1685882326509060814,4.007286548614502,5.0795793533325195,-71.03538513183594
1685882326552806458,4.061106204986572,5.089230060577393,-72.75615692138672
1685882326593892406,4.044719219207764,5.1627068519592285,-74.51299285888672
1685882326637851834,3.9982948303222656,5.215013027191162,-74.67156219482422
1685882326684646887,3.9727988243103027,5.26593017578125,-74.08899688720703
1685882326732431731,3.9988489151000977,5.241906642913818,-72.74234008789062
1685882326774520880,4.031301498413086,5.246416091918945,-71.71073150634766
1685882326816610167,4.000068187713623,5.278554439544678,-71.73165130615234
1685882326859260351,3.9908833503723145,5.315252780914307,-71.9321060180664
1685882326903712648,3.9941749572753906,5.326077938079834,-71.71150207519531
1685882326947884394,3.996441125869751,5.312002658843994,-71.4290542602539
1685882326991317497,4.001699924468994,5.299369812011719,-70.95616149902344
1685882327034462506,3.992103099822998,5.306497573852539,-70.72598266601562
1685882327078890429,3.990539312362671,5.325719356536865,-70.7553939819336
1685882327121489908,3.9972169399261475,5.316518306732178,-70.67472839355469
1685882327166332129,3.992758274078369,5.314730167388916,-70.71235656738281
1685882327209279976,3.9892494678497314,5.307237148284912,-70.69974517822266
1685882327252906191,4.000098705291748,5.3027849197387695,-70.65503692626953
1685882327299030489,3.9981796741485596,5.295871734619141,-70.6599349975586
1685882327343427263,4.004208564758301,5.3022565841674805,-70.70702362060547
1685882327410874941,3.9989845752716064,5.300641059875488,-70.69107818603516
1685882327428490658,3.99579119682312,5.302035331726074,-70.67024230957031
1685882327476009686,3.9932706356048584,5.312081336975098,-70.7508773803711
1685882327513283068,3.989750623703003,5.311939716339111,-70.73902893066406
1685882327615216415,3.991544008255005,5.320006370544434,-70.83707427978516
1685882327689494081,3.9984312057495117,5.3190836906433105,-70.81233978271484
1685882327689518526,3.9948136806488037,5.318339824676514,-70.81403350830078
1685882327689528373,3.9911251068115234,5.323403835296631,-70.89009857177734
1685882327732026722,3.9944190979003906,5.31801700592041,-70.83609771728516
1685882327771663254,3.9927446842193604,5.3085856437683105,-70.70294952392578
1685882327815136167,3.991961717605591,5.321226596832275,-70.88167572021484
1685882327865466935,3.993910074234009,5.317492485046387,-70.83235168457031
1685882327903597480,3.9895713329315186,5.323750972747803,-70.89525604248047
1685882327948700070,3.9922561645507812,5.322758674621582,-70.88103485107422
1685882327990529967,3.9859983921051025,5.334766864776611,-70.99405670166016
1685882328042812729,3.9904844760894775,5.323495388031006,-70.88822174072266
1685882328100984508,3.991642713546753,5.315239906311035,-70.8249740600586
1685882328201799905,3.9929983615875244,5.310934543609619,-70.767333984375
1685882328201819042,3.992286205291748,5.323974609375,-70.8793716430664
1685882328231185553,3.9906044006347656,5.319863796234131,-70.87494659423828
1685882328290936094,3.990373373031616,5.329728126525879,-70.93622589111328
1685882328302514032,3.9887428283691406,5.324202060699463,-70.93392944335938
1685882328347688698,3.989964246749878,5.315917015075684,-70.85333251953125
1685882328382134836,3.9837486743927,5.321650505065918,-70.8938980102539
1685882328554492077,3.986677885055542,5.316720485687256,-70.865966796875
1685882328554499201,3.990846633911133,5.318334102630615,-70.84169006347656
1685882328554552210,3.9894163608551025,5.31371545791626,-70.77376556396484
1685882328558498731,3.9937362670898438,5.3219075202941895,-70.86200714111328
1685882328609084979,3.9940383434295654,5.31056547164917,-70.78860473632812
1685882328657433233,3.9968602657318115,5.317663669586182,-70.83064270019531
1685882328699694121,3.9874794483184814,5.335536479949951,-71.00762176513672
1685882328741803453,3.9927845001220703,5.3227033615112305,-70.89369201660156
1685882328778892734,3.9852731227874756,5.325028419494629,-70.94853210449219
1685882328826336264,3.991671562194824,5.31791877746582,-70.84463500976562
1685882328870598174,3.9894895553588867,5.323057651519775,-70.90486145019531
1685882328913313798,3.989452838897705,5.323383808135986,-70.91987609863281
1685882328961323601,3.988396644592285,5.321869850158691,-70.8842544555664
1685882329000746768,3.9947290420532227,5.320005416870117,-70.84788513183594
1685882329044973549,3.9946508407592773,5.32219123840332,-70.87101745605469
1685882329093149434,4.009621620178223,5.301163673400879,-70.59273529052734
1685882329131104328,3.993577718734741,5.317663192749023,-70.83484649658203
1685882329173168682,3.9919326305389404,5.322482109069824,-70.88483428955078
1685882329215764738,3.996155261993408,5.310131549835205,-70.76951599121094
1685882329271457641,3.998905897140503,5.3145880699157715,-70.78723907470703
1685882329306236502,4.000524520874023,5.310000896453857,-70.77352905273438
1685882329348909593,3.9925858974456787,5.32625675201416,-70.9183349609375
1685882329390435472,3.9900646209716797,5.333987236022949,-70.95855712890625
1685882329436533230,3.998898506164551,5.318840980529785,-70.82271575927734
1685882329476456949,3.985044479370117,5.328188419342041,-70.95885467529297
1685882329519744364,3.994448661804199,5.322195529937744,-70.85502624511719
1685882329574537920,3.988199472427368,5.327303409576416,-70.92814636230469
1685882329608341798,3.9947917461395264,5.325100421905518,-70.895751953125
1685882329654241346,3.9907686710357666,5.32034158706665,-70.85743713378906
1685882329695381072,3.983823299407959,5.297021865844727,-70.65278625488281
1685882329737402405,3.9807064533233643,5.296961784362793,-70.66720581054688
1685882329781055439,3.9795432090759277,5.286375522613525,-70.60702514648438
1685882329828501972,3.978388547897339,5.2871928215026855,-70.6163330078125
1685882329867809551,3.9828155040740967,5.28093957901001,-70.55149841308594
1685882329912152966,3.989583730697632,5.281585693359375,-70.50788879394531
1685882329957740953,4.000211715698242,5.26672887802124,-70.34413146972656
1685882329997290253,4.03501033782959,5.2867302894592285,-70.3518295288086
1685882330040694513,4.044155597686768,5.288703918457031,-70.36949920654297
1685882330086203719,4.024392604827881,5.28720760345459,-70.3776626586914
1685882330127492556,4.038609981536865,5.30458927154541,-70.51826477050781
1685882330174739832,4.037306785583496,5.303191661834717,-70.52220153808594
1685882330215206427,4.019794464111328,5.320450782775879,-70.74273681640625
1685882330257001125,4.023109436035156,5.315831184387207,-70.70056915283203
1685882330300025098,4.013133525848389,5.320010185241699,-70.76704406738281
1685882330343904907,4.011430740356445,5.32505464553833,-70.8089828491211
